{
    "project_name": "project_name",
    "project_description": "project_description",
    "author_full_name": "author_full_name",
    "author_email": "author_email",
    "project_url": "https://www.example.com/",
    "deploy_port": "12345"
}
